{"failedCount":0,"prefixedPath":"classpath:features\/reqres\/get-users.feature","packageQualifiedName":"features.reqres.get-users","loopIndex":-1,"relativePath":"features\/reqres\/get-users.feature","scenarioResults":[{"sectionIndex":0,"stepResults":[{"result":{"nanos":45625,"startTime":1751990561523,"endTime":1751990561523,"millis":0.045625,"status":"passed"},"step":{"background":true,"line":4,"prefix":"*","index":0,"text":"url baseUrl"}},{"result":{"nanos":11291,"startTime":1751990561523,"endTime":1751990561523,"millis":0.011291,"status":"passed"},"step":{"line":7,"prefix":"Given","index":0,"text":"path 'users'"}},{"result":{"nanos":442167,"startTime":1751990561523,"endTime":1751990561523,"millis":0.442167,"status":"passed"},"step":{"line":8,"prefix":"And","index":1,"text":"param page = 2"}},{"result":{"nanos":51625,"startTime":1751990561523,"endTime":1751990561523,"millis":0.051625,"status":"passed"},"step":{"line":9,"prefix":"And","index":2,"text":"headers headers"}},{"result":{"nanos":224713208,"startTime":1751990561523,"endTime":1751990561748,"millis":224.713208,"status":"passed"},"step":{"line":10,"prefix":"When","index":3,"text":"method get"},"stepLog":"11:02:41.524 request:\n1 > GET https:\/\/reqres.in\/api\/users?page=2\n1 > x-api-key: reqres-free-v1\n1 > Host: reqres.in\n1 > Connection: Keep-Alive\n1 > User-Agent: Apache-HttpClient\/4.5.14 (Java\/17.0.14)\n1 > Accept-Encoding: gzip,deflate\n\n\n11:02:41.748 response time in milliseconds: 223\n1 < 200\n1 < Date: Tue, 08 Jul 2025 16:02:44 GMT\n1 < Content-Type: application\/json; charset=utf-8\n1 < Transfer-Encoding: chunked\n1 < Connection: keep-alive\n1 < Report-To: {\"group\":\"heroku-nel\",\"max_age\":3600,\"endpoints\":[{\"url\":\"https:\/\/nel.heroku.com\/reports?ts=1751982706&sid=c4c9725f-1ab0-44d8-820f-430df2718e11&s=2DPNe%2BYp70FfoYo1w%2F0MXFitbPO3flWMyBQj0omLt%2Bo%3D\"}]}\n1 < Reporting-Endpoints: heroku-nel=https:\/\/nel.heroku.com\/reports?ts=1751982706&sid=c4c9725f-1ab0-44d8-820f-430df2718e11&s=2DPNe%2BYp70FfoYo1w%2F0MXFitbPO3flWMyBQj0omLt%2Bo%3D\n1 < Nel: {\"report_to\":\"heroku-nel\",\"max_age\":3600,\"success_fraction\":0.005,\"failure_fraction\":0.05,\"response_headers\":[\"Via\"]}\n1 < Access-Control-Allow-Origin: *\n1 < X-Request-Id: e616861a-590a-441c-bb31-6a508dca53ab\n1 < X-Content-Type-Options: nosniff\n1 < X-Frame-Options: DENY\n1 < X-Xss-Protection: 1; mode=block\n1 < Referrer-Policy: strict-origin-when-cross-origin\n1 < Ratelimit-Policy: 100;w=60\n1 < Ratelimit-Limit: 100\n1 < Ratelimit-Remaining: 98\n1 < Ratelimit-Reset: 60\n1 < Etag: W\/\"440-ZjsmMKR8P3usr2uJZbOCGCxC3Uw\"\n1 < Via: 1.1 vegur\n1 < Cache-Control: max-age=14400\n1 < CF-Cache-Status: HIT\n1 < Age: 140\n1 < Vary: Accept-Encoding\n1 < Server: cloudflare\n1 < CF-RAY: 95c0cec1cb7b1fe9-EZE\n1 < server-timing: cfL4;desc=\"?proto=TCP&rtt=63782&min_rtt=63277&rtt_var=24090&sent=3&recv=7&lost=0&retrans=0&sent_bytes=219&recv_bytes=1033&delivery_rate=22883&cwnd=36&unsent_bytes=0&cid=c8e4f09405dfcf07&ts=92&x=0\"\n{\"page\":2,\"per_page\":6,\"total\":12,\"total_pages\":2,\"data\":[{\"id\":7,\"email\":\"michael.lawson@reqres.in\",\"first_name\":\"Michael\",\"last_name\":\"Lawson\",\"avatar\":\"https:\/\/reqres.in\/img\/faces\/7-image.jpg\"},{\"id\":8,\"email\":\"lindsay.ferguson@reqres.in\",\"first_name\":\"Lindsay\",\"last_name\":\"Ferguson\",\"avatar\":\"https:\/\/reqres.in\/img\/faces\/8-image.jpg\"},{\"id\":9,\"email\":\"tobias.funke@reqres.in\",\"first_name\":\"Tobias\",\"last_name\":\"Funke\",\"avatar\":\"https:\/\/reqres.in\/img\/faces\/9-image.jpg\"},{\"id\":10,\"email\":\"byron.fields@reqres.in\",\"first_name\":\"Byron\",\"last_name\":\"Fields\",\"avatar\":\"https:\/\/reqres.in\/img\/faces\/10-image.jpg\"},{\"id\":11,\"email\":\"george.edwards@reqres.in\",\"first_name\":\"George\",\"last_name\":\"Edwards\",\"avatar\":\"https:\/\/reqres.in\/img\/faces\/11-image.jpg\"},{\"id\":12,\"email\":\"rachel.howell@reqres.in\",\"first_name\":\"Rachel\",\"last_name\":\"Howell\",\"avatar\":\"https:\/\/reqres.in\/img\/faces\/12-image.jpg\"}],\"support\":{\"url\":\"https:\/\/contentcaddy.io?utm_source=reqres&utm_medium=json&utm_campaign=referral\",\"text\":\"Tired of writing endless social media content? Let Content Caddy generate it for you.\"}}\n\n"},{"result":{"nanos":4958,"startTime":1751990561748,"endTime":1751990561748,"millis":0.004958,"status":"passed"},"step":{"line":11,"prefix":"Then","index":4,"text":"status 200"}},{"result":{"nanos":335459,"startTime":1751990561748,"endTime":1751990561748,"millis":0.335459,"status":"passed"},"step":{"line":12,"prefix":"And","index":5,"text":"match response.page == 2"}},{"result":{"nanos":873250,"startTime":1751990561749,"endTime":1751990561750,"millis":0.87325,"status":"passed"},"step":{"line":13,"prefix":"And","index":6,"text":"match response.data[0].email contains '@reqres.in'"}}],"executorName":"main","line":6,"name":"Obtener usuarios en página 2","description":"","durationMillis":226.477583,"startTime":1751990561523,"failed":false,"refId":"[1:6]","endTime":1751990561749,"exampleIndex":-1}],"callDepth":0,"name":"Obtener lista de usuarios","description":"","resultDate":"2025-07-08 11:02:41 a. m.","durationMillis":226.477583,"passedCount":1}